cars16_1_26
…
actores_por_anio <- df_actores_anio %>%
  group_by(releaseYear) %>%
  summarise(
    peliculas = n(),
    promedio_actores = mean(actorsAmount, na.rm = TRUE),
    mediana_actores = median(actorsAmount, na.rm = TRUE)
  ) %>%
  arrange(releaseYear)

actores_por_anio

## # A tibble: 101 × 4
##    releaseYear peliculas promedio_actores mediana_actores
##          <int>     <int>            <dbl>           <dbl>
##  1        1902         1             11              11  
##  2        1920         1             11              11  
##  3        1921         1             35              35  
##  4        1922         1             20              20  
##  5        1925         2             31.5            31.5
##  6        1926         1             22              22  
##  7        1927         2             41              41  
##  8        1929         1              1               1  
##  9        1930         1             44              44  
## 10        1931         4             26              27.5
## # ℹ 91 more rows
…
